{
    "variable": [
        {
            "id": "baseUrl",
            "key": "baseUrl",
            "type": "string",
            "name": "string",
            "value": "http:\/\/shop-api.loc"
        }
    ],
    "info": {
        "name": "Laravel",
        "_postman_id": "2402ea27-019c-4589-a98c-4ef6b454b13b",
        "description": "",
        "schema": "https:\/\/schema.getpostman.com\/json\/collection\/v2.1.0\/collection.json"
    },
    "item": [
        {
            "name": "Endpoints",
            "description": "",
            "item": [
                {
                    "name": "api\/v1\/auth\/register",
                    "request": {
                        "url": {
                            "host": "{{baseUrl}}",
                            "path": "api\/v1\/auth\/register",
                            "query": [],
                            "raw": "{{baseUrl}}\/api\/v1\/auth\/register"
                        },
                        "method": "POST",
                        "header": [
                            {
                                "key": "Content-Type",
                                "value": "application\/json"
                            },
                            {
                                "key": "Accept",
                                "value": "application\/json"
                            }
                        ],
                        "body": {
                            "mode": "raw",
                            "raw": "{\"name\":\"wpawqobfyfaukpdqegxziorkjvu\",\"email\":\"cttfdrvhjbdryd\",\"password\":\"quibusdam\",\"password_confirmation\":\"rerum\"}"
                        },
                        "description": "",
                        "auth": {
                            "type": "noauth"
                        }
                    },
                    "response": []
                },
                {
                    "name": "api\/v1\/auth\/login",
                    "request": {
                        "url": {
                            "host": "{{baseUrl}}",
                            "path": "api\/v1\/auth\/login",
                            "query": [],
                            "raw": "{{baseUrl}}\/api\/v1\/auth\/login"
                        },
                        "method": "POST",
                        "header": [
                            {
                                "key": "Content-Type",
                                "value": "application\/json"
                            },
                            {
                                "key": "Accept",
                                "value": "application\/json"
                            }
                        ],
                        "body": {
                            "mode": "raw",
                            "raw": "{\"email\":\"et\",\"password\":\"est\"}"
                        },
                        "description": "",
                        "auth": {
                            "type": "noauth"
                        }
                    },
                    "response": []
                },
                {
                    "name": "api\/v1\/auth\/logout",
                    "request": {
                        "url": {
                            "host": "{{baseUrl}}",
                            "path": "api\/v1\/auth\/logout",
                            "query": [],
                            "raw": "{{baseUrl}}\/api\/v1\/auth\/logout"
                        },
                        "method": "POST",
                        "header": [
                            {
                                "key": "Content-Type",
                                "value": "application\/json"
                            },
                            {
                                "key": "Accept",
                                "value": "application\/json"
                            }
                        ],
                        "body": null,
                        "description": "",
                        "auth": {
                            "type": "noauth"
                        }
                    },
                    "response": []
                },
                {
                    "name": "api\/v1\/products",
                    "request": {
                        "url": {
                            "host": "{{baseUrl}}",
                            "path": "api\/v1\/products",
                            "query": [],
                            "raw": "{{baseUrl}}\/api\/v1\/products"
                        },
                        "method": "GET",
                        "header": [
                            {
                                "key": "Content-Type",
                                "value": "application\/json"
                            },
                            {
                                "key": "Accept",
                                "value": "application\/json"
                            }
                        ],
                        "body": null,
                        "description": "",
                        "auth": {
                            "type": "noauth"
                        }
                    },
                    "response": [
                        {
                            "header": [
                                {
                                    "key": "cache-control",
                                    "value": "no-cache, private"
                                },
                                {
                                    "key": "content-type",
                                    "value": "application\/json"
                                },
                                {
                                    "key": "x-ratelimit-limit",
                                    "value": "60"
                                },
                                {
                                    "key": "x-ratelimit-remaining",
                                    "value": "59"
                                },
                                {
                                    "key": "access-control-allow-origin",
                                    "value": "*"
                                }
                            ],
                            "code": 200,
                            "body": "{\"status\":\"ok\",\"data\":{\"data\":[{\"id\":30,\"external_id\":30,\"title\":\"Key Holder\",\"price\":30,\"category\":{\"id\":6,\"name\":\"home-decoration\",\"created_at\":\"2022-10-10 20:54:32\",\"updated_at\":\"2022-10-10 20:54:32\"},\"is_active\":1,\"description\":\"Attractive DesignMetallic materialFour key hooksReliable & DurablePremium Quality\",\"created_at\":\"2022-10-10 20:54:32\",\"updated_at\":\"2022-10-10 20:54:32\"},{\"id\":29,\"external_id\":29,\"title\":\"Handcraft Chinese style\",\"price\":60,\"category\":{\"id\":6,\"name\":\"home-decoration\",\"created_at\":\"2022-10-10 20:54:32\",\"updated_at\":\"2022-10-10 20:54:32\"},\"is_active\":1,\"description\":\"Handcraft Chinese style art luxury palace hotel villa mansion home decor ceramic vase with brass fruit plate\",\"created_at\":\"2022-10-10 20:54:32\",\"updated_at\":\"2022-10-10 20:54:32\"},{\"id\":28,\"external_id\":28,\"title\":\"3D Embellishment Art Lamp\",\"price\":20,\"category\":{\"id\":6,\"name\":\"home-decoration\",\"created_at\":\"2022-10-10 20:54:32\",\"updated_at\":\"2022-10-10 20:54:32\"},\"is_active\":1,\"description\":\"3D led lamp sticker Wall sticker 3d wall art light on\\\/off button  cell operated (included)\",\"created_at\":\"2022-10-10 20:54:32\",\"updated_at\":\"2022-10-10 20:54:32\"},{\"id\":27,\"external_id\":27,\"title\":\"Flying Wooden Bird\",\"price\":51,\"category\":{\"id\":6,\"name\":\"home-decoration\",\"created_at\":\"2022-10-10 20:54:32\",\"updated_at\":\"2022-10-10 20:54:32\"},\"is_active\":1,\"description\":\"Package Include 6 Birds with Adhesive Tape Shape: 3D Shaped Wooden Birds Material: Wooden MDF, Laminated 3.5mm\",\"created_at\":\"2022-10-10 20:54:32\",\"updated_at\":\"2022-10-10 20:54:32\"},{\"id\":26,\"external_id\":26,\"title\":\"Plant Hanger For Home\",\"price\":41,\"category\":{\"id\":6,\"name\":\"home-decoration\",\"created_at\":\"2022-10-10 20:54:32\",\"updated_at\":\"2022-10-10 20:54:32\"},\"is_active\":1,\"description\":\"Boho Decor Plant Hanger For Home Wall Decoration Macrame Wall Hanging Shelf\",\"created_at\":\"2022-10-10 20:54:32\",\"updated_at\":\"2022-10-10 20:54:32\"},{\"id\":25,\"external_id\":25,\"title\":\"Gulab Powder 50 Gram\",\"price\":70,\"category\":{\"id\":5,\"name\":\"groceries\",\"created_at\":\"2022-10-10 20:54:32\",\"updated_at\":\"2022-10-10 20:54:32\"},\"is_active\":1,\"description\":\"Dry Rose Flower Powder Gulab Powder 50 Gram \\u2022 Treats Wounds\",\"created_at\":\"2022-10-10 20:54:32\",\"updated_at\":\"2022-10-10 20:54:32\"},{\"id\":24,\"external_id\":24,\"title\":\"cereals muesli fruit nuts\",\"price\":46,\"category\":{\"id\":5,\"name\":\"groceries\",\"created_at\":\"2022-10-10 20:54:32\",\"updated_at\":\"2022-10-10 20:54:32\"},\"is_active\":1,\"description\":\"original fauji cereal muesli 250gm box pack original fauji cereals muesli fruit nuts flakes breakfast cereal break fast faujicereals cerels cerel foji fouji\",\"created_at\":\"2022-10-10 20:54:32\",\"updated_at\":\"2022-10-10 20:54:32\"},{\"id\":23,\"external_id\":23,\"title\":\"Orange Essence Food Flavou\",\"price\":14,\"category\":{\"id\":5,\"name\":\"groceries\",\"created_at\":\"2022-10-10 20:54:32\",\"updated_at\":\"2022-10-10 20:54:32\"},\"is_active\":1,\"description\":\"Specifications of Orange Essence Food Flavour For Cakes and Baking Food Item\",\"created_at\":\"2022-10-10 20:54:32\",\"updated_at\":\"2022-10-10 20:54:32\"},{\"id\":22,\"external_id\":22,\"title\":\"Elbow Macaroni - 400 gm\",\"price\":14,\"category\":{\"id\":5,\"name\":\"groceries\",\"created_at\":\"2022-10-10 20:54:32\",\"updated_at\":\"2022-10-10 20:54:32\"},\"is_active\":1,\"description\":\"Product details of Bake Parlor Big Elbow Macaroni - 400 gm\",\"created_at\":\"2022-10-10 20:54:32\",\"updated_at\":\"2022-10-10 20:54:32\"},{\"id\":21,\"external_id\":21,\"title\":\"- Daal Masoor 500 grams\",\"price\":20,\"category\":{\"id\":5,\"name\":\"groceries\",\"created_at\":\"2022-10-10 20:54:32\",\"updated_at\":\"2022-10-10 20:54:32\"},\"is_active\":1,\"description\":\"Fine quality Branded Product Keep in a cool and dry place\",\"created_at\":\"2022-10-10 20:54:32\",\"updated_at\":\"2022-10-10 20:54:32\"}],\"pagination\":{\"total\":30,\"count\":10,\"per_page\":10,\"current_page\":1,\"total_pages\":3}},\"message\":\"Success\",\"code\":200}",
                            "name": ""
                        }
                    ]
                },
                {
                    "name": "Display the specified resource.",
                    "request": {
                        "url": {
                            "host": "{{baseUrl}}",
                            "path": "api\/v1\/products\/:id",
                            "query": [],
                            "raw": "{{baseUrl}}\/api\/v1\/products\/:id",
                            "variable": [
                                {
                                    "id": "id",
                                    "key": "id",
                                    "value": "1",
                                    "description": "The ID of the product."
                                }
                            ]
                        },
                        "method": "GET",
                        "header": [
                            {
                                "key": "Content-Type",
                                "value": "application\/json"
                            },
                            {
                                "key": "Accept",
                                "value": "application\/json"
                            }
                        ],
                        "body": null,
                        "description": "",
                        "auth": {
                            "type": "noauth"
                        }
                    },
                    "response": [
                        {
                            "header": [
                                {
                                    "key": "cache-control",
                                    "value": "no-cache, private"
                                },
                                {
                                    "key": "content-type",
                                    "value": "application\/json"
                                },
                                {
                                    "key": "x-ratelimit-limit",
                                    "value": "60"
                                },
                                {
                                    "key": "x-ratelimit-remaining",
                                    "value": "58"
                                },
                                {
                                    "key": "access-control-allow-origin",
                                    "value": "*"
                                }
                            ],
                            "code": 200,
                            "body": "{\"status\":\"ok\",\"data\":{\"id\":1,\"external_id\":1,\"title\":\"iPhone 9\",\"price\":549,\"category\":{\"id\":1,\"name\":\"smartphones\",\"created_at\":\"2022-10-10 20:52:01\",\"updated_at\":\"2022-10-10 20:52:01\"},\"is_active\":1,\"description\":\"An apple mobile which is nothing like apple\",\"created_at\":\"2022-10-10 20:52:01\",\"updated_at\":\"2022-10-10 20:52:01\"},\"message\":\"Success\",\"code\":200}",
                            "name": ""
                        }
                    ]
                },
                {
                    "name": "api\/v1\/categories",
                    "request": {
                        "url": {
                            "host": "{{baseUrl}}",
                            "path": "api\/v1\/categories",
                            "query": [],
                            "raw": "{{baseUrl}}\/api\/v1\/categories"
                        },
                        "method": "GET",
                        "header": [
                            {
                                "key": "Content-Type",
                                "value": "application\/json"
                            },
                            {
                                "key": "Accept",
                                "value": "application\/json"
                            }
                        ],
                        "body": null,
                        "description": "",
                        "auth": {
                            "type": "noauth"
                        }
                    },
                    "response": [
                        {
                            "header": [
                                {
                                    "key": "cache-control",
                                    "value": "no-cache, private"
                                },
                                {
                                    "key": "content-type",
                                    "value": "application\/json"
                                },
                                {
                                    "key": "x-ratelimit-limit",
                                    "value": "60"
                                },
                                {
                                    "key": "x-ratelimit-remaining",
                                    "value": "57"
                                },
                                {
                                    "key": "access-control-allow-origin",
                                    "value": "*"
                                }
                            ],
                            "code": 200,
                            "body": "{\"status\":\"ok\",\"data\":{\"data\":[{\"id\":6,\"name\":\"home-decoration\",\"created_at\":\"2022-10-10 20:54:32\",\"updated_at\":\"2022-10-10 20:54:32\"},{\"id\":5,\"name\":\"groceries\",\"created_at\":\"2022-10-10 20:54:32\",\"updated_at\":\"2022-10-10 20:54:32\"},{\"id\":4,\"name\":\"skincare\",\"created_at\":\"2022-10-10 20:52:40\",\"updated_at\":\"2022-10-10 20:52:40\"},{\"id\":3,\"name\":\"fragrances\",\"created_at\":\"2022-10-10 20:52:40\",\"updated_at\":\"2022-10-10 20:52:40\"},{\"id\":2,\"name\":\"laptops\",\"created_at\":\"2022-10-10 20:52:01\",\"updated_at\":\"2022-10-10 20:52:01\"},{\"id\":1,\"name\":\"smartphones\",\"created_at\":\"2022-10-10 20:52:01\",\"updated_at\":\"2022-10-10 20:52:01\"}],\"pagination\":{\"total\":6,\"count\":6,\"per_page\":10,\"current_page\":1,\"total_pages\":1}},\"message\":\"Success\",\"code\":200}",
                            "name": ""
                        }
                    ]
                },
                {
                    "name": "api\/v1\/categories\/{id}",
                    "request": {
                        "url": {
                            "host": "{{baseUrl}}",
                            "path": "api\/v1\/categories\/:id",
                            "query": [],
                            "raw": "{{baseUrl}}\/api\/v1\/categories\/:id",
                            "variable": [
                                {
                                    "id": "id",
                                    "key": "id",
                                    "value": "1",
                                    "description": "The ID of the category."
                                }
                            ]
                        },
                        "method": "GET",
                        "header": [
                            {
                                "key": "Content-Type",
                                "value": "application\/json"
                            },
                            {
                                "key": "Accept",
                                "value": "application\/json"
                            }
                        ],
                        "body": null,
                        "description": "",
                        "auth": {
                            "type": "noauth"
                        }
                    },
                    "response": [
                        {
                            "header": [
                                {
                                    "key": "cache-control",
                                    "value": "no-cache, private"
                                },
                                {
                                    "key": "content-type",
                                    "value": "application\/json"
                                },
                                {
                                    "key": "x-ratelimit-limit",
                                    "value": "60"
                                },
                                {
                                    "key": "x-ratelimit-remaining",
                                    "value": "56"
                                },
                                {
                                    "key": "access-control-allow-origin",
                                    "value": "*"
                                }
                            ],
                            "code": 200,
                            "body": "{\"status\":\"ok\",\"data\":{\"id\":1,\"name\":\"smartphones\",\"created_at\":\"2022-10-10 20:52:01\",\"updated_at\":\"2022-10-10 20:52:01\"},\"message\":\"Success\",\"code\":200}",
                            "name": ""
                        }
                    ]
                },
                {
                    "name": "api\/v1\/cart",
                    "request": {
                        "url": {
                            "host": "{{baseUrl}}",
                            "path": "api\/v1\/cart",
                            "query": [],
                            "raw": "{{baseUrl}}\/api\/v1\/cart"
                        },
                        "method": "POST",
                        "header": [
                            {
                                "key": "Content-Type",
                                "value": "application\/json"
                            },
                            {
                                "key": "Accept",
                                "value": "application\/json"
                            }
                        ],
                        "body": {
                            "mode": "raw",
                            "raw": "{\"user_id\":11,\"cart_token\":\"sunt\",\"products_ids\":[16]}"
                        },
                        "description": "",
                        "auth": {
                            "type": "noauth"
                        }
                    },
                    "response": []
                },
                {
                    "name": "api\/v1\/admin\/products",
                    "request": {
                        "url": {
                            "host": "{{baseUrl}}",
                            "path": "api\/v1\/admin\/products",
                            "query": [],
                            "raw": "{{baseUrl}}\/api\/v1\/admin\/products"
                        },
                        "method": "POST",
                        "header": [
                            {
                                "key": "Content-Type",
                                "value": "application\/json"
                            },
                            {
                                "key": "Accept",
                                "value": "application\/json"
                            }
                        ],
                        "body": {
                            "mode": "raw",
                            "raw": "{\"title\":\"qjgqhqekncuegqqcvlcidxfq\",\"price\":0,\"category_id\":\"omnis\",\"is_active\":\"1\",\"description\":\"lrmpjhvbjbyddnvzsxbvzohdblevzrfuxo\"}"
                        },
                        "description": "",
                        "auth": {
                            "type": "noauth"
                        }
                    },
                    "response": []
                },
                {
                    "name": "api\/v1\/admin\/products\/{id}",
                    "request": {
                        "url": {
                            "host": "{{baseUrl}}",
                            "path": "api\/v1\/admin\/products\/:id",
                            "query": [],
                            "raw": "{{baseUrl}}\/api\/v1\/admin\/products\/:id",
                            "variable": [
                                {
                                    "id": "id",
                                    "key": "id",
                                    "value": "1",
                                    "description": "The ID of the product."
                                }
                            ]
                        },
                        "method": "PUT",
                        "header": [
                            {
                                "key": "Content-Type",
                                "value": "application\/json"
                            },
                            {
                                "key": "Accept",
                                "value": "application\/json"
                            }
                        ],
                        "body": {
                            "mode": "raw",
                            "raw": "{\"title\":\"ztdttnbdpeyvqvvkjwoseclv\",\"price\":1,\"is_active\":\"0\",\"description\":\"oxylyornlgoyhjxrqcexwunvuvqjsiaueecjxeiepagpcqzxdgtmoqbqqlpziehbcwjrgjdvyaecnhrmkvfvikclqtwmuszpnoghylrgqcwglwricrtrevncwrsnfqcfcmmjauzjqerzftfkarbciiocxtmawpvxchwedhmlvyykfwpnlsfbrjagxaxfoccoelmrcmwtjqjioobjjvayukktfrdtmeohpwlykzdjhagehufgschpdfidlqhmgouuloifbbefbt\"}"
                        },
                        "description": "",
                        "auth": {
                            "type": "noauth"
                        }
                    },
                    "response": []
                },
                {
                    "name": "api\/v1\/admin\/categories",
                    "request": {
                        "url": {
                            "host": "{{baseUrl}}",
                            "path": "api\/v1\/admin\/categories",
                            "query": [],
                            "raw": "{{baseUrl}}\/api\/v1\/admin\/categories"
                        },
                        "method": "POST",
                        "header": [
                            {
                                "key": "Content-Type",
                                "value": "application\/json"
                            },
                            {
                                "key": "Accept",
                                "value": "application\/json"
                            }
                        ],
                        "body": {
                            "mode": "raw",
                            "raw": "{\"name\":\"cqbzbmzhsvgxrzaqzxfczvtupar\"}"
                        },
                        "description": "",
                        "auth": {
                            "type": "noauth"
                        }
                    },
                    "response": []
                },
                {
                    "name": "api\/v1\/admin\/categories\/{id}",
                    "request": {
                        "url": {
                            "host": "{{baseUrl}}",
                            "path": "api\/v1\/admin\/categories\/:id",
                            "query": [],
                            "raw": "{{baseUrl}}\/api\/v1\/admin\/categories\/:id",
                            "variable": [
                                {
                                    "id": "id",
                                    "key": "id",
                                    "value": "1",
                                    "description": "The ID of the category."
                                }
                            ]
                        },
                        "method": "PUT",
                        "header": [
                            {
                                "key": "Content-Type",
                                "value": "application\/json"
                            },
                            {
                                "key": "Accept",
                                "value": "application\/json"
                            }
                        ],
                        "body": {
                            "mode": "raw",
                            "raw": "{\"name\":\"ryutkbuffbtwsvwuojdntlmbsqkmkeyaihkyzacjbyjgmgh\"}"
                        },
                        "description": "",
                        "auth": {
                            "type": "noauth"
                        }
                    },
                    "response": []
                }
            ]
        }
    ],
    "auth": {
        "type": "noauth"
    }
}