## Autogenerated by Scribe. DO NOT MODIFY.

name: Endpoints
description: ''
endpoints:
  -
    httpMethods:
      - POST
    uri: api/v1/auth/register
    metadata:
      groupName: Endpoints
      groupDescription: ''
      subgroup: ''
      subgroupDescription: ''
      title: ''
      description: ''
      authenticated: false
      custom: []
    headers:
      Content-Type: application/json
      Accept: application/json
    urlParameters: []
    cleanUrlParameters: []
    queryParameters: []
    cleanQueryParameters: []
    bodyParameters:
      name:
        name: name
        description: 'Must not be greater than 50 characters.'
        required: true
        example: wpawqobfyfaukpdqegxziorkjvu
        type: string
        custom: []
      email:
        name: email
        description: 'Must be a valid email address. Must not be greater than 50 characters.'
        required: true
        example: cttfdrvhjbdryd
        type: string
        custom: []
      password:
        name: password
        description: ''
        required: true
        example: quibusdam
        type: string
        custom: []
      password_confirmation:
        name: password_confirmation
        description: 'The value and <code>password</code> must match.'
        required: true
        example: rerum
        type: string
        custom: []
    cleanBodyParameters:
      name: wpawqobfyfaukpdqegxziorkjvu
      email: cttfdrvhjbdryd
      password: quibusdam
      password_confirmation: rerum
    fileParameters: []
    responses: []
    responseFields: []
    auth: []
    controller: null
    method: null
    route: null
    custom: []
  -
    httpMethods:
      - POST
    uri: api/v1/auth/login
    metadata:
      groupName: Endpoints
      groupDescription: ''
      subgroup: ''
      subgroupDescription: ''
      title: ''
      description: ''
      authenticated: false
      custom: []
    headers:
      Content-Type: application/json
      Accept: application/json
    urlParameters: []
    cleanUrlParameters: []
    queryParameters: []
    cleanQueryParameters: []
    bodyParameters:
      email:
        name: email
        description: ''
        required: true
        example: et
        type: string
        custom: []
      password:
        name: password
        description: ''
        required: true
        example: est
        type: string
        custom: []
    cleanBodyParameters:
      email: et
      password: est
    fileParameters: []
    responses: []
    responseFields: []
    auth: []
    controller: null
    method: null
    route: null
    custom: []
  -
    httpMethods:
      - POST
    uri: api/v1/auth/logout
    metadata:
      groupName: Endpoints
      groupDescription: ''
      subgroup: ''
      subgroupDescription: ''
      title: ''
      description: ''
      authenticated: false
      custom: []
    headers:
      Content-Type: application/json
      Accept: application/json
    urlParameters: []
    cleanUrlParameters: []
    queryParameters: []
    cleanQueryParameters: []
    bodyParameters: []
    cleanBodyParameters: []
    fileParameters: []
    responses: []
    responseFields: []
    auth: []
    controller: null
    method: null
    route: null
    custom: []
  -
    httpMethods:
      - GET
    uri: api/v1/products
    metadata:
      groupName: Endpoints
      groupDescription: ''
      subgroup: ''
      subgroupDescription: ''
      title: ''
      description: ''
      authenticated: false
      custom: []
    headers:
      Content-Type: application/json
      Accept: application/json
    urlParameters: []
    cleanUrlParameters: []
    queryParameters: []
    cleanQueryParameters: []
    bodyParameters: []
    cleanBodyParameters: []
    fileParameters: []
    responses:
      -
        status: 200
        content: '{"status":"ok","data":{"data":[{"id":30,"external_id":30,"title":"Key Holder","price":30,"category":{"id":6,"name":"home-decoration","created_at":"2022-10-10 20:54:32","updated_at":"2022-10-10 20:54:32"},"is_active":1,"description":"Attractive DesignMetallic materialFour key hooksReliable & DurablePremium Quality","created_at":"2022-10-10 20:54:32","updated_at":"2022-10-10 20:54:32"},{"id":29,"external_id":29,"title":"Handcraft Chinese style","price":60,"category":{"id":6,"name":"home-decoration","created_at":"2022-10-10 20:54:32","updated_at":"2022-10-10 20:54:32"},"is_active":1,"description":"Handcraft Chinese style art luxury palace hotel villa mansion home decor ceramic vase with brass fruit plate","created_at":"2022-10-10 20:54:32","updated_at":"2022-10-10 20:54:32"},{"id":28,"external_id":28,"title":"3D Embellishment Art Lamp","price":20,"category":{"id":6,"name":"home-decoration","created_at":"2022-10-10 20:54:32","updated_at":"2022-10-10 20:54:32"},"is_active":1,"description":"3D led lamp sticker Wall sticker 3d wall art light on\/off button  cell operated (included)","created_at":"2022-10-10 20:54:32","updated_at":"2022-10-10 20:54:32"},{"id":27,"external_id":27,"title":"Flying Wooden Bird","price":51,"category":{"id":6,"name":"home-decoration","created_at":"2022-10-10 20:54:32","updated_at":"2022-10-10 20:54:32"},"is_active":1,"description":"Package Include 6 Birds with Adhesive Tape Shape: 3D Shaped Wooden Birds Material: Wooden MDF, Laminated 3.5mm","created_at":"2022-10-10 20:54:32","updated_at":"2022-10-10 20:54:32"},{"id":26,"external_id":26,"title":"Plant Hanger For Home","price":41,"category":{"id":6,"name":"home-decoration","created_at":"2022-10-10 20:54:32","updated_at":"2022-10-10 20:54:32"},"is_active":1,"description":"Boho Decor Plant Hanger For Home Wall Decoration Macrame Wall Hanging Shelf","created_at":"2022-10-10 20:54:32","updated_at":"2022-10-10 20:54:32"},{"id":25,"external_id":25,"title":"Gulab Powder 50 Gram","price":70,"category":{"id":5,"name":"groceries","created_at":"2022-10-10 20:54:32","updated_at":"2022-10-10 20:54:32"},"is_active":1,"description":"Dry Rose Flower Powder Gulab Powder 50 Gram \u2022 Treats Wounds","created_at":"2022-10-10 20:54:32","updated_at":"2022-10-10 20:54:32"},{"id":24,"external_id":24,"title":"cereals muesli fruit nuts","price":46,"category":{"id":5,"name":"groceries","created_at":"2022-10-10 20:54:32","updated_at":"2022-10-10 20:54:32"},"is_active":1,"description":"original fauji cereal muesli 250gm box pack original fauji cereals muesli fruit nuts flakes breakfast cereal break fast faujicereals cerels cerel foji fouji","created_at":"2022-10-10 20:54:32","updated_at":"2022-10-10 20:54:32"},{"id":23,"external_id":23,"title":"Orange Essence Food Flavou","price":14,"category":{"id":5,"name":"groceries","created_at":"2022-10-10 20:54:32","updated_at":"2022-10-10 20:54:32"},"is_active":1,"description":"Specifications of Orange Essence Food Flavour For Cakes and Baking Food Item","created_at":"2022-10-10 20:54:32","updated_at":"2022-10-10 20:54:32"},{"id":22,"external_id":22,"title":"Elbow Macaroni - 400 gm","price":14,"category":{"id":5,"name":"groceries","created_at":"2022-10-10 20:54:32","updated_at":"2022-10-10 20:54:32"},"is_active":1,"description":"Product details of Bake Parlor Big Elbow Macaroni - 400 gm","created_at":"2022-10-10 20:54:32","updated_at":"2022-10-10 20:54:32"},{"id":21,"external_id":21,"title":"- Daal Masoor 500 grams","price":20,"category":{"id":5,"name":"groceries","created_at":"2022-10-10 20:54:32","updated_at":"2022-10-10 20:54:32"},"is_active":1,"description":"Fine quality Branded Product Keep in a cool and dry place","created_at":"2022-10-10 20:54:32","updated_at":"2022-10-10 20:54:32"}],"pagination":{"total":30,"count":10,"per_page":10,"current_page":1,"total_pages":3}},"message":"Success","code":200}'
        headers:
          cache-control: 'no-cache, private'
          content-type: application/json
          x-ratelimit-limit: '60'
          x-ratelimit-remaining: '59'
          access-control-allow-origin: '*'
        description: null
        custom: []
    responseFields: []
    auth: []
    controller: null
    method: null
    route: null
    custom: []
  -
    httpMethods:
      - GET
    uri: 'api/v1/products/{id}'
    metadata:
      groupName: Endpoints
      groupDescription: ''
      subgroup: ''
      subgroupDescription: ''
      title: 'Display the specified resource.'
      description: ''
      authenticated: false
      custom: []
    headers:
      Content-Type: application/json
      Accept: application/json
    urlParameters:
      id:
        name: id
        description: 'The ID of the product.'
        required: true
        example: 1
        type: integer
        custom: []
    cleanUrlParameters:
      id: 1
    queryParameters: []
    cleanQueryParameters: []
    bodyParameters: []
    cleanBodyParameters: []
    fileParameters: []
    responses:
      -
        status: 200
        content: '{"status":"ok","data":{"id":1,"external_id":1,"title":"iPhone 9","price":549,"category":{"id":1,"name":"smartphones","created_at":"2022-10-10 20:52:01","updated_at":"2022-10-10 20:52:01"},"is_active":1,"description":"An apple mobile which is nothing like apple","created_at":"2022-10-10 20:52:01","updated_at":"2022-10-10 20:52:01"},"message":"Success","code":200}'
        headers:
          cache-control: 'no-cache, private'
          content-type: application/json
          x-ratelimit-limit: '60'
          x-ratelimit-remaining: '58'
          access-control-allow-origin: '*'
        description: null
        custom: []
    responseFields: []
    auth: []
    controller: null
    method: null
    route: null
    custom: []
  -
    httpMethods:
      - GET
    uri: api/v1/categories
    metadata:
      groupName: Endpoints
      groupDescription: ''
      subgroup: ''
      subgroupDescription: ''
      title: ''
      description: ''
      authenticated: false
      custom: []
    headers:
      Content-Type: application/json
      Accept: application/json
    urlParameters: []
    cleanUrlParameters: []
    queryParameters: []
    cleanQueryParameters: []
    bodyParameters: []
    cleanBodyParameters: []
    fileParameters: []
    responses:
      -
        status: 200
        content: '{"status":"ok","data":{"data":[{"id":6,"name":"home-decoration","created_at":"2022-10-10 20:54:32","updated_at":"2022-10-10 20:54:32"},{"id":5,"name":"groceries","created_at":"2022-10-10 20:54:32","updated_at":"2022-10-10 20:54:32"},{"id":4,"name":"skincare","created_at":"2022-10-10 20:52:40","updated_at":"2022-10-10 20:52:40"},{"id":3,"name":"fragrances","created_at":"2022-10-10 20:52:40","updated_at":"2022-10-10 20:52:40"},{"id":2,"name":"laptops","created_at":"2022-10-10 20:52:01","updated_at":"2022-10-10 20:52:01"},{"id":1,"name":"smartphones","created_at":"2022-10-10 20:52:01","updated_at":"2022-10-10 20:52:01"}],"pagination":{"total":6,"count":6,"per_page":10,"current_page":1,"total_pages":1}},"message":"Success","code":200}'
        headers:
          cache-control: 'no-cache, private'
          content-type: application/json
          x-ratelimit-limit: '60'
          x-ratelimit-remaining: '57'
          access-control-allow-origin: '*'
        description: null
        custom: []
    responseFields: []
    auth: []
    controller: null
    method: null
    route: null
    custom: []
  -
    httpMethods:
      - GET
    uri: 'api/v1/categories/{id}'
    metadata:
      groupName: Endpoints
      groupDescription: ''
      subgroup: ''
      subgroupDescription: ''
      title: ''
      description: ''
      authenticated: false
      custom: []
    headers:
      Content-Type: application/json
      Accept: application/json
    urlParameters:
      id:
        name: id
        description: 'The ID of the category.'
        required: true
        example: 1
        type: integer
        custom: []
    cleanUrlParameters:
      id: 1
    queryParameters: []
    cleanQueryParameters: []
    bodyParameters: []
    cleanBodyParameters: []
    fileParameters: []
    responses:
      -
        status: 200
        content: '{"status":"ok","data":{"id":1,"name":"smartphones","created_at":"2022-10-10 20:52:01","updated_at":"2022-10-10 20:52:01"},"message":"Success","code":200}'
        headers:
          cache-control: 'no-cache, private'
          content-type: application/json
          x-ratelimit-limit: '60'
          x-ratelimit-remaining: '56'
          access-control-allow-origin: '*'
        description: null
        custom: []
    responseFields: []
    auth: []
    controller: null
    method: null
    route: null
    custom: []
  -
    httpMethods:
      - POST
    uri: api/v1/cart
    metadata:
      groupName: Endpoints
      groupDescription: ''
      subgroup: ''
      subgroupDescription: ''
      title: ''
      description: ''
      authenticated: false
      custom: []
    headers:
      Content-Type: application/json
      Accept: application/json
    urlParameters: []
    cleanUrlParameters: []
    queryParameters: []
    cleanQueryParameters: []
    bodyParameters:
      user_id:
        name: user_id
        description: ''
        required: false
        example: 11
        type: integer
        custom: []
      cart_token:
        name: cart_token
        description: ''
        required: false
        example: sunt
        type: string
        custom: []
      products_ids:
        name: products_ids
        description: ''
        required: false
        example:
          - 16
        type: 'integer[]'
        custom: []
    cleanBodyParameters:
      user_id: 11
      cart_token: sunt
      products_ids:
        - 16
    fileParameters: []
    responses: []
    responseFields: []
    auth: []
    controller: null
    method: null
    route: null
    custom: []
  -
    httpMethods:
      - POST
    uri: api/v1/admin/products
    metadata:
      groupName: Endpoints
      groupDescription: ''
      subgroup: ''
      subgroupDescription: ''
      title: ''
      description: ''
      authenticated: false
      custom: []
    headers:
      Content-Type: application/json
      Accept: application/json
    urlParameters: []
    cleanUrlParameters: []
    queryParameters: []
    cleanQueryParameters: []
    bodyParameters:
      title:
        name: title
        description: 'Must be at least 3 characters. Must not be greater than 50 characters.'
        required: true
        example: qjgqhqekncuegqqcvlcidxfq
        type: string
        custom: []
      price:
        name: price
        description: 'Must be between 0.01 and 9999999.99.'
        required: true
        example: 0
        type: number
        custom: []
      category_id:
        name: category_id
        description: ''
        required: true
        example: omnis
        type: string
        custom: []
      is_active:
        name: is_active
        description: 'Must be one of <code>0</code> or <code>1</code>.'
        required: false
        example: '1'
        type: boolean
        custom: []
      description:
        name: description
        description: 'Must not be greater than 400 characters.'
        required: false
        example: lrmpjhvbjbyddnvzsxbvzohdblevzrfuxo
        type: string
        custom: []
    cleanBodyParameters:
      title: qjgqhqekncuegqqcvlcidxfq
      price: 0
      category_id: omnis
      is_active: '1'
      description: lrmpjhvbjbyddnvzsxbvzohdblevzrfuxo
    fileParameters: []
    responses: []
    responseFields: []
    auth: []
    controller: null
    method: null
    route: null
    custom: []
  -
    httpMethods:
      - PUT
      - PATCH
    uri: 'api/v1/admin/products/{id}'
    metadata:
      groupName: Endpoints
      groupDescription: ''
      subgroup: ''
      subgroupDescription: ''
      title: ''
      description: ''
      authenticated: false
      custom: []
    headers:
      Content-Type: application/json
      Accept: application/json
    urlParameters:
      id:
        name: id
        description: 'The ID of the product.'
        required: true
        example: 1
        type: integer
        custom: []
    cleanUrlParameters:
      id: 1
    queryParameters: []
    cleanQueryParameters: []
    bodyParameters:
      title:
        name: title
        description: 'Must be at least 3 characters. Must not be greater than 50 characters.'
        required: false
        example: ztdttnbdpeyvqvvkjwoseclv
        type: string
        custom: []
      price:
        name: price
        description: 'Must be between 0.01 and 9999999.99.'
        required: false
        example: 1
        type: number
        custom: []
      category_id:
        name: category_id
        description: ''
        required: false
        example: null
        type: string
        custom: []
      is_active:
        name: is_active
        description: 'Must be one of <code>0</code> or <code>1</code>.'
        required: false
        example: '0'
        type: boolean
        custom: []
      description:
        name: description
        description: 'Must not be greater than 400 characters.'
        required: false
        example: oxylyornlgoyhjxrqcexwunvuvqjsiaueecjxeiepagpcqzxdgtmoqbqqlpziehbcwjrgjdvyaecnhrmkvfvikclqtwmuszpnoghylrgqcwglwricrtrevncwrsnfqcfcmmjauzjqerzftfkarbciiocxtmawpvxchwedhmlvyykfwpnlsfbrjagxaxfoccoelmrcmwtjqjioobjjvayukktfrdtmeohpwlykzdjhagehufgschpdfidlqhmgouuloifbbefbt
        type: string
        custom: []
    cleanBodyParameters:
      title: ztdttnbdpeyvqvvkjwoseclv
      price: 1
      is_active: '0'
      description: oxylyornlgoyhjxrqcexwunvuvqjsiaueecjxeiepagpcqzxdgtmoqbqqlpziehbcwjrgjdvyaecnhrmkvfvikclqtwmuszpnoghylrgqcwglwricrtrevncwrsnfqcfcmmjauzjqerzftfkarbciiocxtmawpvxchwedhmlvyykfwpnlsfbrjagxaxfoccoelmrcmwtjqjioobjjvayukktfrdtmeohpwlykzdjhagehufgschpdfidlqhmgouuloifbbefbt
    fileParameters: []
    responses: []
    responseFields: []
    auth: []
    controller: null
    method: null
    route: null
    custom: []
  -
    httpMethods:
      - POST
    uri: api/v1/admin/categories
    metadata:
      groupName: Endpoints
      groupDescription: ''
      subgroup: ''
      subgroupDescription: ''
      title: ''
      description: ''
      authenticated: false
      custom: []
    headers:
      Content-Type: application/json
      Accept: application/json
    urlParameters: []
    cleanUrlParameters: []
    queryParameters: []
    cleanQueryParameters: []
    bodyParameters:
      name:
        name: name
        description: 'Must be at least 3 characters. Must not be greater than 50 characters.'
        required: true
        example: cqbzbmzhsvgxrzaqzxfczvtupar
        type: string
        custom: []
    cleanBodyParameters:
      name: cqbzbmzhsvgxrzaqzxfczvtupar
    fileParameters: []
    responses: []
    responseFields: []
    auth: []
    controller: null
    method: null
    route: null
    custom: []
  -
    httpMethods:
      - PUT
      - PATCH
    uri: 'api/v1/admin/categories/{id}'
    metadata:
      groupName: Endpoints
      groupDescription: ''
      subgroup: ''
      subgroupDescription: ''
      title: ''
      description: ''
      authenticated: false
      custom: []
    headers:
      Content-Type: application/json
      Accept: application/json
    urlParameters:
      id:
        name: id
        description: 'The ID of the category.'
        required: true
        example: 1
        type: integer
        custom: []
    cleanUrlParameters:
      id: 1
    queryParameters: []
    cleanQueryParameters: []
    bodyParameters:
      name:
        name: name
        description: 'Must be at least 3 characters. Must not be greater than 50 characters.'
        required: true
        example: ryutkbuffbtwsvwuojdntlmbsqkmkeyaihkyzacjbyjgmgh
        type: string
        custom: []
    cleanBodyParameters:
      name: ryutkbuffbtwsvwuojdntlmbsqkmkeyaihkyzacjbyjgmgh
    fileParameters: []
    responses: []
    responseFields: []
    auth: []
    controller: null
    method: null
    route: null
    custom: []
